Tidyverse Practice
…
glass.data=read_delim("https://www4.stat.ncsu.edu/~online/datasets/glass.data", 
  delim=",",
  col_names=c("Id","RI","Na","Mg","Al","Si","K","Ca","Ba","Fe","Type_of_glass"))

Rows: 214 Columns: 11
── Column specification ────────────────────────────────────────────────────────
Delimiter: ","
dbl (11): Id, RI, Na, Mg, Al, Si, K, Ca, Ba, Fe, Type_of_glass

ℹ Use `spec()` to retrieve the full column specification for this data.
ℹ Specify the column types or set `show_col_types = FALSE` to quiet this message.

glass.data

# A tibble: 214 × 11
      Id    RI    Na    Mg    Al    Si     K    Ca    Ba    Fe Type_of_glass
   <dbl> <dbl> <dbl> <dbl> <dbl> <dbl> <dbl> <dbl> <dbl> <dbl>         <dbl>
 1     1  1.52  13.6  4.49  1.1   71.8  0.06  8.75     0  0                1
 2     2  1.52  13.9  3.6   1.36  72.7  0.48  7.83     0  0                1
 3     3  1.52  13.5  3.55  1.54  73.0  0.39  7.78     0  0                1
 4     4  1.52  13.2  3.69  1.29  72.6  0.57  8.22     0  0                1
 5     5  1.52  13.3  3.62  1.24  73.1  0.55  8.07     0  0                1
 6     6  1.52  12.8  3.61  1.62  73.0  0.64  8.07     0  0.26             1
 7     7  1.52  13.3  3.6   1.14  73.1  0.58  8.17     0  0                1
 8     8  1.52  13.2  3.61  1.05  73.2  0.57  8.24     0  0                1
 9     9  1.52  14.0  3.58  1.37  72.1  0.56  8.3      0  0                1
10    10  1.52  13    3.6   1.36  73.0  0.57  8.4      0  0.11             1
# ℹ 204 more rows
…
glass=glass.data |>
  mutate(Type_of_glass=ifelse(Type_of_glass==1, rename[1],
                       ifelse(Type_of_glass==2, rename[2],
                       ifelse(Type_of_glass==3, rename[3],
                       ifelse(Type_of_glass==4, rename[4],
                       ifelse(Type_of_glass==5, rename[5],
                       ifelse(Type_of_glass==6, rename[6],
                       ifelse(Type_of_glass==7, rename[7],
                       "N/A")))))))) |>
  filter(Fe<0.2 & (Type_of_glass=="tableware" | Type_of_glass=="headlamps"))
glass

# A tibble: 38 × 11
      Id    RI    Na    Mg    Al    Si     K    Ca    Ba    Fe Type_of_glass
   <dbl> <dbl> <dbl> <dbl> <dbl> <dbl> <dbl> <dbl> <dbl> <dbl> <chr>        
 1   177  1.52  14    2.39  1.56  72.4  0     9.57  0        0 tableware    
 2   178  1.52  13.8  2.41  1.19  72.8  0     9.77  0        0 tableware    
 3   179  1.52  14.5  2.24  1.62  72.4  0     9.26  0        0 tableware    
 4   180  1.52  14.1  2.19  1.66  72.7  0     9.32  0        0 tableware    
 5   181  1.51  14.4  1.74  1.54  74.6  0     7.59  0        0 tableware    
 6   182  1.52  15.0  0.78  1.74  72.5  0     9.95  0        0 tableware    
 7   183  1.52  14.2  0     2.09  72.7  0    10.9   0        0 tableware    
 8   184  1.52  14.6  0     0.56  73.5  0    11.2   0        0 tableware    
 9   185  1.51  17.4  0     0.34  75.4  0     6.65  0        0 tableware    
10   186  1.51  13.7  3.2   1.81  72.8  1.76  5.43  1.19     0 headlamps    
# ℹ 28 more rows
…
Rows: 1484 Columns: 10
── Column specification ────────────────────────────────────────────────────────
Delimiter: "  "
chr (2): seq_name, class
dbl (8): mcg, gvh, alm, mit, erl, pox, vac, nuc

ℹ Use `spec()` to retrieve the full column specification for this data.
ℹ Specify the column types or set `show_col_types = FALSE` to quiet this message.

yeast.data

# A tibble: 1,484 × 10
   seq_name     mcg   gvh   alm   mit   erl   pox   vac   nuc class
   <chr>      <dbl> <dbl> <dbl> <dbl> <dbl> <dbl> <dbl> <dbl> <chr>
 1 ADT1_YEAST  0.58  0.61  0.47  0.13   0.5   0    0.48  0.22 MIT  
 2 ADT2_YEAST  0.43  0.67  0.48  0.27   0.5   0    0.53  0.22 MIT  
 3 ADT3_YEAST  0.64  0.62  0.49  0.15   0.5   0    0.53  0.22 MIT  
 4 AAR2_YEAST  0.58  0.44  0.57  0.13   0.5   0    0.54  0.22 NUC  
 5 AATM_YEAST  0.42  0.44  0.48  0.54   0.5   0    0.48  0.22 MIT  
 6 AATC_YEAST  0.51  0.4   0.56  0.17   0.5   0.5  0.49  0.22 CYT  
 7 ABC1_YEAST  0.5   0.54  0.48  0.65   0.5   0    0.53  0.22 MIT  
 8 BAF1_YEAST  0.48  0.45  0.59  0.2    0.5   0    0.58  0.34 NUC  
 9 ABF2_YEAST  0.55  0.5   0.66  0.36   0.5   0    0.49  0.22 MIT  
10 ABP1_YEAST  0.4   0.39  0.6   0.15   0.5   0    0.58  0.3  CYT  
# ℹ 1,474 more rows

Again we want to manipulate the data. This time we remove the variables seq_name and nuc, and then compute the mean and median of each numeric variable, contingent on the class.

yeast=yeast.data |>
  select(-c(seq_name, nuc)) |>
  group_by(class) |>
  mutate(across(where(is.numeric), list(mean=mean, median=median), .names="{.col}_{.fn}"))
yeast

# A tibble: 1,484 × 22
# Groups:   class [44]
     mcg   gvh   alm   mit   erl   pox   vac class mcg_mean mcg_median gvh_mean
   <dbl> <dbl> <dbl> <dbl> <dbl> <dbl> <dbl> <chr>    <dbl>      <dbl>    <dbl>
 1  0.58  0.61  0.47  0.13   0.5   0    0.48 MIT      0.521       0.51    0.531
 2  0.43  0.67  0.48  0.27   0.5   0    0.53 MIT      0.521       0.51    0.531
 3  0.64  0.62  0.49  0.15   0.5   0    0.53 MIT      0.521       0.51    0.531
 4  0.58  0.44  0.57  0.13   0.5   0    0.54 NUC      0.453       0.45    0.458
 5  0.42  0.44  0.48  0.54   0.5   0    0.48 MIT      0.521       0.51    0.531
 6  0.51  0.4   0.56  0.17   0.5   0.5  0.49 CYT      0.480       0.48    0.469
 7  0.5   0.54  0.48  0.65   0.5   0    0.53 MIT      0.521       0.51    0.531
 8  0.48  0.45  0.59  0.2    0.5   0    0.58 NUC      0.453       0.45    0.458
 9  0.55  0.5   0.66  0.36   0.5   0    0.49 MIT      0.521       0.51    0.531
10  0.4   0.39  0.6   0.15   0.5   0    0.58 CYT      0.480       0.48    0.469
# ℹ 1,474 more rows
# ℹ 11 more variables: gvh_median <dbl>, alm_mean <dbl>, alm_median <dbl>,
#   mit_mean <dbl>, mit_median <dbl>, erl_mean <dbl>, erl_median <dbl>,
#   pox_mean <dbl>, pox_median <dbl>, vac_mean <dbl>, vac_median <dbl>

Combining Excel And Delimited Data

We are now interested in data on white wine. After downloading the data source into our projects’ working directory, we can directly access the file with the read_excel function from the readxl package. Like the above, we want to make some small modifications. Since our data source is an excel workbook with two different sheets, we load the first sheet, and use the data on the second sheet to name the columns in the first sheet. Also, we add a column to specify that the wine is white.

excel_sheets("./white-wine.xlsx")

[1] "white-wine" "variables" 

white_wine=read_excel("./white-wine.xlsx",
              sheet="white-wine")
white_wine

# A tibble: 4,898 × 12
   `fixed acidity` `volatile acidity` `citric acid` `residual sugar` chlorides
             <dbl>              <dbl>         <dbl>            <dbl>     <dbl>
 1               7               0.27          0.36             20.7     0.045
 2              63               0.3           0.34              1.6     0.049
 3              81               0.28          0.4               6.9     0.05 
 4              72               0.23          0.32              8.5     0.058
 5              72               0.23          0.32              8.5     0.058
 6              81               0.28          0.4               6.9     0.05 
 7              62               0.32          0.16              7       0.045
 8               7               0.27          0.36             20.7     0.045
 9              63               0.3           0.34              1.6     0.049
10              81               0.22          0.43              1.5     0.044
# ℹ 4,888 more rows
# ℹ 7 more variables: `free sulfur dioxide` <dbl>,
#   `total sulfur dioxide` <dbl>, density <dbl>, pH <dbl>, sulphates <dbl>,
#   alcohol <dbl>, quality <dbl>
…
colnames(white_wine)=variables$Variables
white_wine=mutate(white_wine, wine_type=rep("white", nrow(white_wine)))
white_wine

# A tibble: 4,898 × 13
   fixed_acidity volatile_acidity citric_acid residual_sugar chlorides
           <dbl>            <dbl>       <dbl>          <dbl>     <dbl>
 1             7             0.27        0.36           20.7     0.045
 2            63             0.3         0.34            1.6     0.049
 3            81             0.28        0.4             6.9     0.05 
 4            72             0.23        0.32            8.5     0.058
 5            72             0.23        0.32            8.5     0.058
 6            81             0.28        0.4             6.9     0.05 
 7            62             0.32        0.16            7       0.045
 8             7             0.27        0.36           20.7     0.045
 9            63             0.3         0.34            1.6     0.049
10            81             0.22        0.43            1.5     0.044
# ℹ 4,888 more rows
# ℹ 8 more variables: free_sulfur_dioxide <dbl>, total_sulfur_dioxide <dbl>,
#   density <dbl>, pH <dbl>, sulphates <dbl>, alcohol <dbl>, quality <dbl>,
#   wine_type <chr>
…
We now combine the white and red wine data sets into one tibble, filter the data to only look at high-quality wines with a reasonable alcohol content, and sort the tibble by the quality of the wine. We also select only certain variables, and then add columns for the mean and standard deviation of the alcohol content, contingent on the classification of quality.

wine=bind_rows(white_wine, red_wine)  

wine=wine |>
  filter(quality>6.5 & alcohol<132) |>
  arrange(desc(quality)) |>
  select(contains("acid"), c("alcohol", "wine_type", "quality")) |>
  group_by(quality) |>
  mutate(across(alcohol, list(mean=mean, sd=sd), .names="{.col}_{.fn}"))
wine

# A tibble: 1,198 × 8
# Groups:   quality [3]
   fixed_acidity volatile_acidity citric_acid alcohol wine_type quality
           <dbl>            <dbl>       <dbl>   <dbl> <chr>       <dbl>
 1            91             0.27        0.45     104 white           9
 2            66             0.36        0.29     124 white           9
 3            74             0.24        0.36     125 white           9
 4            69             0.36        0.34     127 white           9
 5            71             0.26        0.49     129 white           9
 6            62             0.66        0.48     128 white           8
 7            62             0.66        0.48     128 white           8
 8            68             0.26        0.42     105 white           8
 9            67             0.23        0.31     107 white           8
10            67             0.23        0.31     107 white           8
# ℹ 1,188 more rows
# ℹ 2 more variables: alcohol_mean <dbl>, alcohol_sd <dbl>
